<svg xmlns="http://www.w3.org/2000/svg" width="84" height="15" fill="none" viewBox="0 0 84 15">
  <path fill="url(#a)" d="M8.838 14.309a.692.692 0 0 1-.69.691H7.41a.69.69 0 1 1 0-1.383h.737a.69.69 0 0 1 .69.692Zm-5.72-6.812a.692.692 0 0 0-.69-.691H.691a.69.69 0 0 0 0 1.382h1.737a.69.69 0 0 0 .69-.693v.002Zm10.192-.691h-1.337a.277.277 0 0 1-.042 0v.003h-1.347a.445.445 0 0 1-.004-.889h1.348v.004a.277.277 0 0 1 .042 0h.37a.69.69 0 1 0 0-1.382H5.921a.444.444 0 0 1 .011-.89h4.691a.69.69 0 0 0 0-1.381H7.53a.444.444 0 0 1-.029-.889H8.82A.69.69 0 0 0 9.09.046.69.69 0 0 0 8.82 0H4.887a.69.69 0 1 0 0 1.382h.4a.444.444 0 0 1-.028.889H3.1a.69.69 0 1 0 0 1.382h.565a.444.444 0 0 1 .011.889H1.791a.69.69 0 1 0 0 1.382h6.536a.444.444 0 0 1-.004.889h-3.9a.69.69 0 0 0 0 1.382h2.3a.444.444 0 0 1 .032.888H2.189a.69.69 0 0 0 0 1.383H4.53a.445.445 0 0 1 .315.76.45.45 0 0 1-.302.12H3.9a.69.69 0 0 0 0 1.382h5.978a.69.69 0 0 0 0-1.382H6.782a.444.444 0 0 1 .016-.888h4.448a.69.69 0 0 0 0-1.383H8.96a.444.444 0 0 1 .033-.887h-.005 4.322a.69.69 0 0 0 0-1.383h.001Z"/>
  <path fill="#F29A1F" d="M23.088 13.084a4.593 4.593 0 0 1-2.28-.543 3.705 3.705 0 0 1-1.5-1.54 4.934 4.934 0 0 1-.527-2.343 4.774 4.774 0 0 1 .528-2.317 3.634 3.634 0 0 1 1.498-1.5 4.713 4.713 0 0 1 2.282-.524c.41.005.82.056 1.218.154.437.104.854.279 1.235.518a.78.78 0 0 1 .4.534.914.914 0 0 1-.085.601.847.847 0 0 1-.42.398.702.702 0 0 1-.638-.086 3.059 3.059 0 0 0-1.516-.452c-.738 0-1.308.226-1.71.697-.403.47-.607 1.13-.607 1.988 0 .857.201 1.52.606 2.008a2.102 2.102 0 0 0 1.711.731 3.146 3.146 0 0 0 1.516-.43.678.678 0 0 1 .631-.086.731.731 0 0 1 .392.405 1 1 0 0 1 .051.602.836.836 0 0 1-.394.527c-.37.227-.771.395-1.192.498a4.957 4.957 0 0 1-1.198.16Zm7.816 0a4.539 4.539 0 0 1-2.247-.534 3.692 3.692 0 0 1-1.481-1.525 4.877 4.877 0 0 1-.528-2.334 4.823 4.823 0 0 1 .528-2.325 3.71 3.71 0 0 1 1.48-1.516 5.008 5.008 0 0 1 4.498 0 3.71 3.71 0 0 1 1.48 1.516 4.85 4.85 0 0 1 .529 2.325 4.916 4.916 0 0 1-.528 2.334 3.693 3.693 0 0 1-1.48 1.525 4.547 4.547 0 0 1-2.25.534Zm0-1.636a1.885 1.885 0 0 0 1.534-.699c.385-.466.58-1.151.58-2.058 0-.907-.195-1.604-.58-2.058a2.083 2.083 0 0 0-1.533-.681 2.062 2.062 0 0 0-1.533.68c-.387.453-.58 1.14-.58 2.059.002.92.195 1.606.58 2.058a1.901 1.901 0 0 0 1.532.704v-.005Zm8.856 1.636c-1.896 0-2.844-1.074-2.844-3.221V1.726c0-.723.353-1.085 1.056-1.085.702 0 1.073.362 1.073 1.085V9.77c0 1.034.426 1.552 1.277 1.552h.257l.237-.028a.28.28 0 0 1 .325.13 1.7 1.7 0 0 1 .085.664c.014.239-.045.476-.17.679a.778.778 0 0 1-.564.292 5.163 5.163 0 0 1-.731.025Zm3.68-.034c-.703 0-1.055-.368-1.055-1.103v-6.51c0-.724.344-1.086 1.038-1.086.693 0 1.04.362 1.04 1.086v.344c.239-.45.599-.824 1.037-1.077a2.994 2.994 0 0 1 1.534-.387c1.248 0 2.068.551 2.46 1.654a2.93 2.93 0 0 1 1.119-1.215 3.188 3.188 0 0 1 1.668-.439c1.874 0 2.81 1.154 2.81 3.463v4.167c0 .735-.356 1.103-1.072 1.103-.716 0-1.056-.368-1.056-1.103V7.875c0-.644-.105-1.115-.315-1.414-.21-.298-.565-.449-1.065-.452a1.579 1.579 0 0 0-1.31.595 2.551 2.551 0 0 0-.479 1.644v3.703c0 .736-.352 1.104-1.055 1.104-.704 0-1.062-.368-1.074-1.104V7.88c0-.644-.105-1.116-.315-1.414-.21-.299-.56-.45-1.047-.453a1.58 1.58 0 0 0-1.31.595 2.564 2.564 0 0 0-.477 1.645v3.703c-.001.73-.36 1.094-1.076 1.094Zm17.95.034a5.21 5.21 0 0 1-2.436-.534 3.765 3.765 0 0 1-1.565-1.515 5.15 5.15 0 0 1-.018-4.617 3.977 3.977 0 0 1 1.483-1.542 4.156 4.156 0 0 1 2.153-.559c1.181 0 2.115.377 2.8 1.131.686.754 1.03 1.787 1.031 3.099 0 .425-.272.638-.816.638h-5.144c.158 1.508 1.01 2.262 2.554 2.262.336-.005.67-.043.998-.113.366-.074.72-.205 1.046-.387a.96.96 0 0 1 .75-.165.667.667 0 0 1 .433.37.87.87 0 0 1 .036.611 1.008 1.008 0 0 1-.487.577 4.351 4.351 0 0 1-1.371.561 6.39 6.39 0 0 1-1.447.183Zm-.307-7.303a2.04 2.04 0 0 0-1.516.585c-.404.432-.65.99-.698 1.584h4.19a2.588 2.588 0 0 0-.571-1.61 1.801 1.801 0 0 0-1.405-.56Zm6.489 7.269c-.704 0-1.055-.368-1.055-1.104v-6.51c0-.723.346-1.085 1.037-1.085.692 0 1.039.362 1.04 1.085v.362c.272-.47.67-.853 1.15-1.103a3.47 3.47 0 0 1 1.626-.378c1.965 0 2.947 1.154 2.947 3.463v4.166c0 .736-.352 1.104-1.057 1.104-.706 0-1.066-.368-1.08-1.104V7.875c0-.655-.123-1.131-.367-1.43a1.384 1.384 0 0 0-1.132-.452 1.933 1.933 0 0 0-1.492.595 2.218 2.218 0 0 0-.552 1.583v3.77c.006.74-.35 1.11-1.065 1.11Zm11.65.034a3.544 3.544 0 0 1-1.61-.353 2.78 2.78 0 0 1-1.108-.957 2.41 2.41 0 0 1-.4-1.357c-.03-.534.14-1.06.476-1.473.318-.362.837-.624 1.55-.785a13.699 13.699 0 0 1 2.879-.24h.597v-.361c0-.575-.126-.989-.376-1.242s-.67-.38-1.26-.378a5.235 5.235 0 0 0-1.064.12c-.414.092-.817.23-1.2.414a.75.75 0 0 1-.683.043.737.737 0 0 1-.371-.468.972.972 0 0 1 .033-.645.861.861 0 0 1 .52-.484c.485-.205.99-.36 1.507-.464a7.03 7.03 0 0 1 1.32-.138c1.214 0 2.117.285 2.708.853.59.569.888 1.45.894 2.644v4.133c0 .736-.33 1.104-.988 1.104-.66 0-.994-.368-1.005-1.104v-.378a2.348 2.348 0 0 1-.919 1.11c-.451.28-.972.42-1.5.406Zm.447-1.482a1.819 1.819 0 0 0 1.386-.586 2.06 2.06 0 0 0 .555-1.481v-.378h-.58c-1.066 0-1.808.084-2.222.249a.896.896 0 0 0-.463.345.913.913 0 0 0-.159.56 1.221 1.221 0 0 0 .391.93c.305.254.693.383 1.087.361h.005Z"/>
  <defs>
    <linearGradient id="a" x1="2.303" x2="11.694" y1="11.292" y2="2.845" gradientUnits="userSpaceOnUse">
      <stop stop-color="#E05074"/>
      <stop offset=".3" stop-color="#EF8342"/>
      <stop offset=".66" stop-color="#F9AC1B"/>
      <stop offset="1" stop-color="#FBC665"/>
    </linearGradient>
  </defs>
</svg>
